{
  "images" : [
    {
      "idiom" : "universal",
      "scale" : "1x"
    },
    {
      "idiom" : "universal",
      "filename" : "iPhone 6@3x-1.png",
      "scale" : "2x"
    },
    {
      "idiom" : "universal",
      "filename" : "iPhone 6@3x.png",
      "scale" : "3x"
    }
  ],
  "info" : {
    "version" : 1,
    "author" : "xcode"
  }
}